A Hands-on Tutorial of ggplot2 Package in R
…
count: false
 
## Basic bar chart
.panel1-my_bar-auto[

```r
*globalData2019clean
```
]
 
.panel2-my_bar-auto[

```
## # A tibble: 4,058 × 7
##    country SEX      AGE BETTER_GENDER     COUNTRY_SATIS ECON_SIT      LADDER_NOW
##    <fct>   <fct>  <dbl> <fct>             <fct>         <fct>              <dbl>
##  1 Israel  Male      70 Same/both equally Dissatisfied  Somewhat good         10
##  2 Israel  Female    58 Men               <NA>          Very good             10
##  3 Israel  Female    53 Women             Dissatisfied  Somewhat good          8
##  4 Israel  Female    38 Same/both equally Dissatisfied  Somewhat good          7
##  5 Israel  Female    42 Men               Dissatisfied  Somewhat good          9
##  6 Israel  Female    67 Same/both equally Dissatisfied  Somewhat good         10
##  7 Israel  Female    78 Same/both equally Dissatisfied  Somewhat good          8
##  8 Israel  Male      28 Same/both equally Dissatisfied  Somewhat bad           8
##  9 Israel  Female    18 Same/both equally Satisfied     Somewhat good          9
## 10 Israel  Female    37 Women             Dissatisfied  Somewhat good          7
## # … with 4,048 more rows
```
…
count: false
 
## Fancy bar chart
.panel1-my_bar_fancy-auto[

```r
*globalData2019clean
```
]
 
.panel2-my_bar_fancy-auto[

```
## # A tibble: 4,058 × 7
##    country SEX      AGE BETTER_GENDER     COUNTRY_SATIS ECON_SIT      LADDER_NOW
##    <fct>   <fct>  <dbl> <fct>             <fct>         <fct>              <dbl>
##  1 Israel  Male      70 Same/both equally Dissatisfied  Somewhat good         10
##  2 Israel  Female    58 Men               <NA>          Very good             10
##  3 Israel  Female    53 Women             Dissatisfied  Somewhat good          8
##  4 Israel  Female    38 Same/both equally Dissatisfied  Somewhat good          7
##  5 Israel  Female    42 Men               Dissatisfied  Somewhat good          9
##  6 Israel  Female    67 Same/both equally Dissatisfied  Somewhat good         10
##  7 Israel  Female    78 Same/both equally Dissatisfied  Somewhat good          8
##  8 Israel  Male      28 Same/both equally Dissatisfied  Somewhat bad           8
##  9 Israel  Female    18 Same/both equally Satisfied     Somewhat good          9
## 10 Israel  Female    37 Women             Dissatisfied  Somewhat good          7
## # … with 4,048 more rows
```
…
count: false
 
## Fancy bar chart with colors
.panel1-my_bar_fancy_colors-auto[

```r
*globalData2019clean
```
]
 
.panel2-my_bar_fancy_colors-auto[

```
## # A tibble: 4,058 × 7
##    country SEX      AGE BETTER_GENDER     COUNTRY_SATIS ECON_SIT      LADDER_NOW
##    <fct>   <fct>  <dbl> <fct>             <fct>         <fct>              <dbl>
##  1 Israel  Male      70 Same/both equally Dissatisfied  Somewhat good         10
##  2 Israel  Female    58 Men               <NA>          Very good             10
##  3 Israel  Female    53 Women             Dissatisfied  Somewhat good          8
##  4 Israel  Female    38 Same/both equally Dissatisfied  Somewhat good          7
##  5 Israel  Female    42 Men               Dissatisfied  Somewhat good          9
##  6 Israel  Female    67 Same/both equally Dissatisfied  Somewhat good         10
##  7 Israel  Female    78 Same/both equally Dissatisfied  Somewhat good          8
##  8 Israel  Male      28 Same/both equally Dissatisfied  Somewhat bad           8
##  9 Israel  Female    18 Same/both equally Satisfied     Somewhat good          9
## 10 Israel  Female    37 Women             Dissatisfied  Somewhat good          7
## # … with 4,048 more rows
```
…
count: false
 
## Super fancy bar chart
.panel1-my_bar_fancy_legend-auto[

```r
*globalData2019clean
```
]
 
.panel2-my_bar_fancy_legend-auto[

```
## # A tibble: 4,058 × 7
##    country SEX      AGE BETTER_GENDER     COUNTRY_SATIS ECON_SIT      LADDER_NOW
##    <fct>   <fct>  <dbl> <fct>             <fct>         <fct>              <dbl>
##  1 Israel  Male      70 Same/both equally Dissatisfied  Somewhat good         10
##  2 Israel  Female    58 Men               <NA>          Very good             10
##  3 Israel  Female    53 Women             Dissatisfied  Somewhat good          8
##  4 Israel  Female    38 Same/both equally Dissatisfied  Somewhat good          7
##  5 Israel  Female    42 Men               Dissatisfied  Somewhat good          9
##  6 Israel  Female    67 Same/both equally Dissatisfied  Somewhat good         10
##  7 Israel  Female    78 Same/both equally Dissatisfied  Somewhat good          8
##  8 Israel  Male      28 Same/both equally Dissatisfied  Somewhat bad           8
##  9 Israel  Female    18 Same/both equally Satisfied     Somewhat good          9
## 10 Israel  Female    37 Women             Dissatisfied  Somewhat good          7
## # … with 4,048 more rows
```
…
count: false
 
## You try it example
.panel1-you-try-auto[

```r
*globalData2019clean
```
]
 
.panel2-you-try-auto[

```
## # A tibble: 4,058 × 7
##    country SEX      AGE BETTER_GENDER     COUNTRY_SATIS ECON_SIT      LADDER_NOW
##    <fct>   <fct>  <dbl> <fct>             <fct>         <fct>              <dbl>
##  1 Israel  Male      70 Same/both equally Dissatisfied  Somewhat good         10
##  2 Israel  Female    58 Men               <NA>          Very good             10
##  3 Israel  Female    53 Women             Dissatisfied  Somewhat good          8
##  4 Israel  Female    38 Same/both equally Dissatisfied  Somewhat good          7
##  5 Israel  Female    42 Men               Dissatisfied  Somewhat good          9
##  6 Israel  Female    67 Same/both equally Dissatisfied  Somewhat good         10
##  7 Israel  Female    78 Same/both equally Dissatisfied  Somewhat good          8
##  8 Israel  Male      28 Same/both equally Dissatisfied  Somewhat bad           8
##  9 Israel  Female    18 Same/both equally Satisfied     Somewhat good          9
## 10 Israel  Female    37 Women             Dissatisfied  Somewhat good          7
## # … with 4,048 more rows
```
…
count: false
 
## Stacked bar plot
.panel1-stacked_bar-auto[

```r
*globalData2019clean
```
]
 
.panel2-stacked_bar-auto[

```
## # A tibble: 4,058 × 7
##    country SEX      AGE BETTER_GENDER     COUNTRY_SATIS ECON_SIT      LADDER_NOW
##    <fct>   <fct>  <dbl> <fct>             <fct>         <fct>              <dbl>
##  1 Israel  Male      70 Same/both equally Dissatisfied  Somewhat good         10
##  2 Israel  Female    58 Men               <NA>          Very good             10
##  3 Israel  Female    53 Women             Dissatisfied  Somewhat good          8
##  4 Israel  Female    38 Same/both equally Dissatisfied  Somewhat good          7
##  5 Israel  Female    42 Men               Dissatisfied  Somewhat good          9
##  6 Israel  Female    67 Same/both equally Dissatisfied  Somewhat good         10
##  7 Israel  Female    78 Same/both equally Dissatisfied  Somewhat good          8
##  8 Israel  Male      28 Same/both equally Dissatisfied  Somewhat bad           8
##  9 Israel  Female    18 Same/both equally Satisfied     Somewhat good          9
## 10 Israel  Female    37 Women             Dissatisfied  Somewhat good          7
## # … with 4,048 more rows
```
…
## Stacked bar plot
.panel1-stacked_bar-auto[

```r
globalData2019clean %>%
* drop_na(BETTER_GENDER)
```
]
 
.panel2-stacked_bar-auto[

```
## # A tibble: 3,909 × 7
##    country SEX      AGE BETTER_GENDER     COUNTRY_SATIS ECON_SIT      LADDER_NOW
##    <fct>   <fct>  <dbl> <fct>             <fct>         <fct>              <dbl>
##  1 Israel  Male      70 Same/both equally Dissatisfied  Somewhat good         10
##  2 Israel  Female    58 Men               <NA>          Very good             10
##  3 Israel  Female    53 Women             Dissatisfied  Somewhat good          8
##  4 Israel  Female    38 Same/both equally Dissatisfied  Somewhat good          7
##  5 Israel  Female    42 Men               Dissatisfied  Somewhat good          9
##  6 Israel  Female    67 Same/both equally Dissatisfied  Somewhat good         10
##  7 Israel  Female    78 Same/both equally Dissatisfied  Somewhat good          8
##  8 Israel  Male      28 Same/both equally Dissatisfied  Somewhat bad           8
##  9 Israel  Female    18 Same/both equally Satisfied     Somewhat good          9
## 10 Israel  Female    37 Women             Dissatisfied  Somewhat good          7
## # … with 3,899 more rows
```
…
count: false
 
## Grouped bar plot
.panel1-grouped_bar-auto[

```r
*globalData2019clean
```
]
 
.panel2-grouped_bar-auto[

```
## # A tibble: 4,058 × 7
##    country SEX      AGE BETTER_GENDER     COUNTRY_SATIS ECON_SIT      LADDER_NOW
##    <fct>   <fct>  <dbl> <fct>             <fct>         <fct>              <dbl>
##  1 Israel  Male      70 Same/both equally Dissatisfied  Somewhat good         10
##  2 Israel  Female    58 Men               <NA>          Very good             10
##  3 Israel  Female    53 Women             Dissatisfied  Somewhat good          8
##  4 Israel  Female    38 Same/both equally Dissatisfied  Somewhat good          7
##  5 Israel  Female    42 Men               Dissatisfied  Somewhat good          9
##  6 Israel  Female    67 Same/both equally Dissatisfied  Somewhat good         10
##  7 Israel  Female    78 Same/both equally Dissatisfied  Somewhat good          8
##  8 Israel  Male      28 Same/both equally Dissatisfied  Somewhat bad           8
##  9 Israel  Female    18 Same/both equally Satisfied     Somewhat good          9
## 10 Israel  Female    37 Women             Dissatisfied  Somewhat good          7
## # … with 4,048 more rows
```
…
## Grouped bar plot
.panel1-grouped_bar-auto[

```r
globalData2019clean %>%
* drop_na(BETTER_GENDER)
```
]
 
.panel2-grouped_bar-auto[

```
## # A tibble: 3,909 × 7
##    country SEX      AGE BETTER_GENDER     COUNTRY_SATIS ECON_SIT      LADDER_NOW
##    <fct>   <fct>  <dbl> <fct>             <fct>         <fct>              <dbl>
##  1 Israel  Male      70 Same/both equally Dissatisfied  Somewhat good         10
##  2 Israel  Female    58 Men               <NA>          Very good             10
##  3 Israel  Female    53 Women             Dissatisfied  Somewhat good          8
##  4 Israel  Female    38 Same/both equally Dissatisfied  Somewhat good          7
##  5 Israel  Female    42 Men               Dissatisfied  Somewhat good          9
##  6 Israel  Female    67 Same/both equally Dissatisfied  Somewhat good         10
##  7 Israel  Female    78 Same/both equally Dissatisfied  Somewhat good          8
##  8 Israel  Male      28 Same/both equally Dissatisfied  Somewhat bad           8
##  9 Israel  Female    18 Same/both equally Satisfied     Somewhat good          9
## 10 Israel  Female    37 Women             Dissatisfied  Somewhat good          7
## # … with 3,899 more rows
```
…
count: false
 
## Answer to You try it!
.panel1-answerYti-auto[

```r
# Figure 2 code goes here
*globalData2019clean
```
]
 
.panel2-answerYti-auto[

```
## # A tibble: 4,058 × 7
##    country SEX      AGE BETTER_GENDER     COUNTRY_SATIS ECON_SIT      LADDER_NOW
##    <fct>   <fct>  <dbl> <fct>             <fct>         <fct>              <dbl>
##  1 Israel  Male      70 Same/both equally Dissatisfied  Somewhat good         10
##  2 Israel  Female    58 Men               <NA>          Very good             10
##  3 Israel  Female    53 Women             Dissatisfied  Somewhat good          8
##  4 Israel  Female    38 Same/both equally Dissatisfied  Somewhat good          7
##  5 Israel  Female    42 Men               Dissatisfied  Somewhat good          9
##  6 Israel  Female    67 Same/both equally Dissatisfied  Somewhat good         10
##  7 Israel  Female    78 Same/both equally Dissatisfied  Somewhat good          8
##  8 Israel  Male      28 Same/both equally Dissatisfied  Somewhat bad           8
##  9 Israel  Female    18 Same/both equally Satisfied     Somewhat good          9
## 10 Israel  Female    37 Women             Dissatisfied  Somewhat good          7
## # … with 4,048 more rows
```
…
## Answer to You try it!
.panel1-answerYti-auto[

```r
# Figure 2 code goes here
globalData2019clean %>%
* drop_na(COUNTRY_SATIS)
```
]
 
.panel2-answerYti-auto[

```
## # A tibble: 3,917 × 7
##    country SEX      AGE BETTER_GENDER     COUNTRY_SATIS ECON_SIT      LADDER_NOW
##    <fct>   <fct>  <dbl> <fct>             <fct>         <fct>              <dbl>
##  1 Israel  Male      70 Same/both equally Dissatisfied  Somewhat good         10
##  2 Israel  Female    53 Women             Dissatisfied  Somewhat good          8
##  3 Israel  Female    38 Same/both equally Dissatisfied  Somewhat good          7
##  4 Israel  Female    42 Men               Dissatisfied  Somewhat good          9
##  5 Israel  Female    67 Same/both equally Dissatisfied  Somewhat good         10
##  6 Israel  Female    78 Same/both equally Dissatisfied  Somewhat good          8
##  7 Israel  Male      28 Same/both equally Dissatisfied  Somewhat bad           8
##  8 Israel  Female    18 Same/both equally Satisfied     Somewhat good          9
##  9 Israel  Female    37 Women             Dissatisfied  Somewhat good          7
## 10 Israel  Male      19 Women             Satisfied     Somewhat good          9
## # … with 3,907 more rows
```
…
count: false
 
## Group percentages
.panel1-percents-auto[

```r
*globalData2019clean
```
]
 
.panel2-percents-auto[

```
## # A tibble: 4,058 × 7
##    country SEX      AGE BETTER_GENDER     COUNTRY_SATIS ECON_SIT      LADDER_NOW
##    <fct>   <fct>  <dbl> <fct>             <fct>         <fct>              <dbl>
##  1 Israel  Male      70 Same/both equally Dissatisfied  Somewhat good         10
##  2 Israel  Female    58 Men               <NA>          Very good             10
##  3 Israel  Female    53 Women             Dissatisfied  Somewhat good          8
##  4 Israel  Female    38 Same/both equally Dissatisfied  Somewhat good          7
##  5 Israel  Female    42 Men               Dissatisfied  Somewhat good          9
##  6 Israel  Female    67 Same/both equally Dissatisfied  Somewhat good         10
##  7 Israel  Female    78 Same/both equally Dissatisfied  Somewhat good          8
##  8 Israel  Male      28 Same/both equally Dissatisfied  Somewhat bad           8
##  9 Israel  Female    18 Same/both equally Satisfied     Somewhat good          9
## 10 Israel  Female    37 Women             Dissatisfied  Somewhat good          7
## # … with 4,048 more rows
```
…
## Group percentages
.panel1-percents-auto[

```r
globalData2019clean %>%
* group_by(COUNTRY_SATIS, SEX)
```
]
 
.panel2-percents-auto[

```
## # A tibble: 4,058 × 7
## # Groups:   COUNTRY_SATIS, SEX [6]
##    country SEX      AGE BETTER_GENDER     COUNTRY_SATIS ECON_SIT      LADDER_NOW
##    <fct>   <fct>  <dbl> <fct>             <fct>         <fct>              <dbl>
##  1 Israel  Male      70 Same/both equally Dissatisfied  Somewhat good         10
##  2 Israel  Female    58 Men               <NA>          Very good             10
##  3 Israel  Female    53 Women             Dissatisfied  Somewhat good          8
##  4 Israel  Female    38 Same/both equally Dissatisfied  Somewhat good          7
##  5 Israel  Female    42 Men               Dissatisfied  Somewhat good          9
##  6 Israel  Female    67 Same/both equally Dissatisfied  Somewhat good         10
##  7 Israel  Female    78 Same/both equally Dissatisfied  Somewhat good          8
##  8 Israel  Male      28 Same/both equally Dissatisfied  Somewhat bad           8
##  9 Israel  Female    18 Same/both equally Satisfied     Somewhat good          9
## 10 Israel  Female    37 Women             Dissatisfied  Somewhat good          7
## # … with 4,048 more rows
```
…
count: false
 
## Grouped bar plot
.panel1-grouped_bar_perc-auto[

```r
*globalData2019clean
```
]
 
.panel2-grouped_bar_perc-auto[

```
## # A tibble: 4,058 × 7
##    country SEX      AGE BETTER_GENDER     COUNTRY_SATIS ECON_SIT      LADDER_NOW
##    <fct>   <fct>  <dbl> <fct>             <fct>         <fct>              <dbl>
##  1 Israel  Male      70 Same/both equally Dissatisfied  Somewhat good         10
##  2 Israel  Female    58 Men               <NA>          Very good             10
##  3 Israel  Female    53 Women             Dissatisfied  Somewhat good          8
##  4 Israel  Female    38 Same/both equally Dissatisfied  Somewhat good          7
##  5 Israel  Female    42 Men               Dissatisfied  Somewhat good          9
##  6 Israel  Female    67 Same/both equally Dissatisfied  Somewhat good         10
##  7 Israel  Female    78 Same/both equally Dissatisfied  Somewhat good          8
##  8 Israel  Male      28 Same/both equally Dissatisfied  Somewhat bad           8
##  9 Israel  Female    18 Same/both equally Satisfied     Somewhat good          9
## 10 Israel  Female    37 Women             Dissatisfied  Somewhat good          7
## # … with 4,048 more rows
```
…
## Grouped bar plot
.panel1-grouped_bar_perc-auto[

```r
globalData2019clean %>%
* group_by(COUNTRY_SATIS, SEX)
```
]
 
.panel2-grouped_bar_perc-auto[

```
## # A tibble: 4,058 × 7
## # Groups:   COUNTRY_SATIS, SEX [6]
##    country SEX      AGE BETTER_GENDER     COUNTRY_SATIS ECON_SIT      LADDER_NOW
##    <fct>   <fct>  <dbl> <fct>             <fct>         <fct>              <dbl>
##  1 Israel  Male      70 Same/both equally Dissatisfied  Somewhat good         10
##  2 Israel  Female    58 Men               <NA>          Very good             10
##  3 Israel  Female    53 Women             Dissatisfied  Somewhat good          8
##  4 Israel  Female    38 Same/both equally Dissatisfied  Somewhat good          7
##  5 Israel  Female    42 Men               Dissatisfied  Somewhat good          9
##  6 Israel  Female    67 Same/both equally Dissatisfied  Somewhat good         10
##  7 Israel  Female    78 Same/both equally Dissatisfied  Somewhat good          8
##  8 Israel  Male      28 Same/both equally Dissatisfied  Somewhat bad           8
##  9 Israel  Female    18 Same/both equally Satisfied     Somewhat good          9
## 10 Israel  Female    37 Women             Dissatisfied  Somewhat good          7
## # … with 4,048 more rows
```
…
count: false
 
## Histogram
.panel1-histogram-auto[

```r
# Histogram for age
*globalData2019clean
```
]
 
.panel2-histogram-auto[

```
## # A tibble: 4,058 × 7
##    country SEX      AGE BETTER_GENDER     COUNTRY_SATIS ECON_SIT      LADDER_NOW
##    <fct>   <fct>  <dbl> <fct>             <fct>         <fct>              <dbl>
##  1 Israel  Male      70 Same/both equally Dissatisfied  Somewhat good         10
##  2 Israel  Female    58 Men               <NA>          Very good             10
##  3 Israel  Female    53 Women             Dissatisfied  Somewhat good          8
##  4 Israel  Female    38 Same/both equally Dissatisfied  Somewhat good          7
##  5 Israel  Female    42 Men               Dissatisfied  Somewhat good          9
##  6 Israel  Female    67 Same/both equally Dissatisfied  Somewhat good         10
##  7 Israel  Female    78 Same/both equally Dissatisfied  Somewhat good          8
##  8 Israel  Male      28 Same/both equally Dissatisfied  Somewhat bad           8
##  9 Israel  Female    18 Same/both equally Satisfied     Somewhat good          9
## 10 Israel  Female    37 Women             Dissatisfied  Somewhat good          7
## # … with 4,048 more rows
```
…
